{
  "project_info": {
    "project_number": "191712904655",
    "firebase_url": "https://baby-names-app-db-db57f.firebaseio.com",
    "project_id": "baby-names-app-db-db57f",
    "storage_bucket": "baby-names-app-db-db57f.appspot.com"
  },
  "client": [
    {
      "client_info": {
        "mobilesdk_app_id": "1:191712904655:android:1bf01fe5d1b789e0043eba",
        "android_client_info": {
          "package_name": "com.example.firebase_for_flutter"
        }
      },
      "oauth_client": [
        {
          "client_id": "191712904655-22rmd79f1ebmjadohoe7nh28vfl46cjo.apps.googleusercontent.com",
          "client_type": 3
        }
      ],
      "api_key": [
        {
          "current_key": "AIzaSyBtsiLRHYlN-kT9WV3fSMzfdkE3FB_xcVo"
        }
      ],
      "services": {
        "appinvite_service": {
          "other_platform_oauth_client": [
            {
              "client_id": "191712904655-22rmd79f1ebmjadohoe7nh28vfl46cjo.apps.googleusercontent.com",
              "client_type": 3
            },
            {
              "client_id": "191712904655-r1c6ci52mge14jjckko1arcook0qvi4f.apps.googleusercontent.com",
              "client_type": 2,
              "ios_info": {
                "bundle_id": "com.example.firebaseForFlutter"
              }
            }
          ]
        }
      }
    }
  ],
  "configuration_version": "1"
}